maps.part001.rar	49ADA59827802FE5E5CE55E0E35EF61B
maps.part002.rar	925FBE7160A63F3D8C0CA17B03243848
maps.part003.rar	02C5FC2C6AE1134A78F3E877FE693BA9
maps.part004.rar	5BE150B9C3183444B6CF6D6D9CA701B9
maps.part005.rar	85E6D81B6B78374F7541D9E61BD478FA
maps.part006.rar	6333A738900DD61460FF32FAA6449D4E
maps.part007.rar	5F52C1F8A4B77364DD86E6485244C551
maps.part008.rar	CC70BA74A0904E76BA19577B1D1AF82F
maps.part009.rar	6E9919B410CAAB065B5CC2E2E6004AA2
maps.part010.rar	0785791E1AE8B10F93980ED8EE532579
maps.part011.rar	8A21D7F8ED085D23A0682F169D376512
maps.part012.rar	748C12D928C752F1BD1DB379C619A368
maps.part013.rar	9BA6B2A1B85467ADB868F33FE237ED36
maps.part014.rar	555AB8FDAE9B114E4BC1A3D686814EA1
maps.part015.rar	95D3C35670873931DC1198DAA7A5E034
maps.part016.rar	65D9845DA475EDF3DEFEE366861F4DDB
maps.part017.rar	0532F762E0988EBD965C7597EAB167CC
maps.part018.rar	586F30336C653ACBAFC518292A949AF5
maps.part019.rar	6B376B42BBC09958656D1885DE0614A2
maps.part020.rar	7174EAEA6F2F1B15E6953C2A9963BE80
maps.part021.rar	B64CD159094DF8FFF51892FAED5FF3C2
maps.part022.rar	8E327AC6886498FA6A5925C0D78E0024
maps.part023.rar	CBBA954C5D24D1A4670FDDA55EB45043
maps.part024.rar	94B3819BA35BBB16C2F52F111EA0AC2A
maps.part025.rar	08BDA25DBD0441B82F970AA9AE77D072
maps.part026.rar	E6F6E737D302C4D66603F8FEFC50AE96
maps.part027.rar	5B47B1D20910CF67B5897687C248D234
maps.part028.rar	101C3F7A43759B4D70377CE13078D72C
maps.part029.rar	CCA213AB25A5B4EE6B2041BB0B0B926B
maps.part030.rar	6FBCA2090C318A2591A55487F87871D3
maps.part031.rar	463130A9E6905236B52D80B7A1A3D583
maps.part032.rar	177B60290101D7B4C4876F1EC7FEDEE3
maps.part033.rar	DA75F58B678A4135270E0D93C20B5D4C
maps.part034.rar	6AFA38E6106C988B3B8317F7365179A1
maps.part035.rar	29471E54F4117F89F4FDA68FCCDC5264
maps.part036.rar	5C7D43E2885F56ABC18A348FF18E51A1
maps.part037.rar	EBDB5B724509C9C805E2618B2F8D773C
maps.part038.rar	4BA8692F31FAA329092CEB785F926437
maps.part039.rar	EEE3FD5A07DC673AFEDC8ACEF32A2148
maps.part040.rar	FCF6181E3A238462801696B5A69E7B34
maps.part041.rar	39CA4E49A8795DB3CC8E6709389B2499
maps.part042.rar	0729E093777FF1A221E6DEDA29AD4E04
maps.part043.rar	A69914651F25AF703B4BB8F60D6D4840
maps.part044.rar	A5BD881512A86F4AD3634639C496DEDA
maps.part045.rar	994F7139BC54F4C94CAFADBD7FC33EDE
maps.part046.rar	5F430C7DA787D63B1E4251E4C9376B2C
maps.part047.rar	5EB6797A232BD43F24593A39916DCCCC
maps.part048.rar	D4D33F439202DB22C189B061EA743944
maps.part049.rar	E2CDEE10739AFFD7F1DB2E9A94CAEF85
maps.part050.rar	D171450835905B5FDD8B29CE2149AE09
maps.part051.rar	05A2CADF8555B83B61EA8A84C621E96F
maps.part052.rar	9A560B85687E5904F61D6D8026325A46
maps.part053.rar	8E6A21030FC37278B397656BEA95680C
maps.part054.rar	2BDE543943A686D76E3F2DFE1C7C3BDF
maps.part055.rar	EA978072639D5EA0BBCE940ED42B2BD8
maps.part056.rar	16F57DA8A0D87827FE3FA5A01DA6BC7A
maps.part057.rar	79F066B84CABC158AB02B5F54C40ACCA
maps.part058.rar	99F0BF0F2882C5387066193175B60EAE
maps.part059.rar	4876873F2695DB43461C605D08486D94
maps.part060.rar	242907B55D0611B8953C301DFF029012
maps.part061.rar	998B6418D0A80C0B538640C68D2913D1
maps.part062.rar	90B571FC72C6793ED3A4DF9A747C6C27
maps.part063.rar	6F012162C5538591FAAD86E81013E70F
maps.part064.rar	494AF1A38D7EC86CA7A960CDAD349A7D
maps.part065.rar	84573D563EBF67C5530E34A00174E942
maps.part066.rar	995EABB5A4BEB8D43AD5A1F841CB584B
maps.part067.rar	A961A6788B8DF31833A18F500017A8CD
maps.part068.rar	98612BBC705BCC42448D46809AD9B54E
maps.part069.rar	207DE54BD8383DF017F1C85ACF6CF94D
maps.part070.rar	16485CA2722CEA6EDC12037926111C2F
maps.part071.rar	71C63EB6E00B1DA26D72EAAEE21A17DE
maps.part072.rar	C5CF6436521F65516D2D7C074D933DF7
maps.part073.rar	AA30277AC4146834B2041096CAF7A66F
maps.part074.rar	3F756B4DD538419F76679971C8677DFC
maps.part075.rar	444E7A3265453A5798D74AC7AA5B57BF
maps.part076.rar	C791B118ED1FF132F3336B27C9479CDE
maps.part077.rar	DDB222935AEF9DA74DACCCFCEE316294
maps.part078.rar	BF23AEA615D427677C2134D947DD9EE7
maps.part079.rar	346CAE1C818D70ABDB011838C3FBE069
maps.part080.rar	8D412B33098F3A0D3D24A0EA9F42014D
maps.part081.rar	8D6E4F00375ED8B0C1484A347E8FBFC3
maps.part082.rar	7F9AA58D20E215878DB49CAF47E43E0B
maps.part083.rar	C05E1737B47A3D17FCC76A09C9741724
maps.part084.rar	196ABF2DED698277E864D49A7F90E4A3
maps.part085.rar	894283E4E2F1D1EDE1CF066D9C27D684
maps.part086.rar	46E78E5AA618BB198D64CABC6279186F
maps.part087.rar	4FB2DADC894A9DC2370921DDF48FAFBE
maps.part088.rar	0BF6A4B6D3ED1D9052BB0CADF511E64B
maps.part089.rar	5D2A8F19F1C378D6F6E9CB5E9A73AD83
maps.part090.rar	AF72D05D51D631DBBC4AEB883736FCD0
maps.part091.rar	ED410957B79CD54F9EFB0FC2AFA89E21
maps.part092.rar	F2CCCE8199C1A55B0A350F2CFE1D7D66
maps.part093.rar	725FEF250F07057174DE3B21EAE4C6E9
maps.part094.rar	21B38A5BFA3ADBEBCD769EBA904E89BB
maps.part095.rar	614491C17A07086C46A55490EB4A9103
maps.part096.rar	EB7CA87F176A3235AE0A5ABE9AB002FB
maps.part097.rar	5B876A34D6067D8C26B3E939490F56AF
maps.part098.rar	68963CEFD4ED43D69E9FB366D270BD3B
maps.part099.rar	18FDBD300E440E25F59D3E6F21CF5151
maps.part100.rar	BCBF5CA285E60453518D2709E0A6460B
maps.part101.rar	7A322CB921C0F93B5F9E1318A16D29E7
maps.part102.rar	221D34E4747AE707E7EFC00C0FC6D157
maps.part103.rar	4F33ADA36661F85B80AF206E2F8D0EE7
maps.part104.rar	882046DA62FD5EFF87F5D079BD45576A
maps.part105.rar	FDD6CA04E0968D6E3B1348CE142411AE
maps.part106.rar	FA01D0EF4600C2686C6EC6DF9546F9A4
maps.part107.rar	6FA42F8317B91502D3ECE31F2666A0FA
maps.part108.rar	915150BFEC02DE572B20902F25CD0E6D
maps.part109.rar	69F2BBE50F7BAEAE7E0A13845FD38BD4
maps.part110.rar	B39F8089C51F560D356A575BFF275539
maps.part111.rar	765AF7855B73AEA4D1DDFB4B47124901
maps.part112.rar	5DD3B67D26190C19A7ADBCD31DF2AA9C
maps.part113.rar	EECF59E72CA14BCE6143E8607F12C681
maps.part114.rar	3AEB93ED2F66F25DABF06A7C836DBCD2
maps.part115.rar	8556CB0D2D2DD2C3EC0C37CD7D08257C
